FIP 606 - Anova I fator, Teste de Normalidade e Homocedasticidade, Teste não-paramétrico
…
Confidence level used: 0.95 
P value adjustment: tukey method for comparing a family of 6 estimates 
significance level used: alpha = 0.05 
NOTE: If two or more means share the same grouping symbol,
      then we cannot show them to be different.
      But we also did not show them to be the same. 

Transformação BoxCox

A transformação Box-Cox é uma transformação de poder que elimina a não linearidade entre variáveis, variâncias diferentes e assimetria variável. A função boxcox do pacote MASS em R pode ser usada para estimar o parâmetro de transformação usando estimativa de máxima verossimilhança. Também receberemos o intervalo de confiança de 95% do parâmetro dessa função.Você deve calcular um modelo linear com a função lm e passá-lo para a função boxcox para determinar o “lambda” apropriado.

library (MASS)
insects

# A tibble: 72 × 2
   spray count
   <fct> <dbl>
 1 A        10
 2 A         7
 3 A        20
 4 A        14
 5 A        14
 6 A        12
 7 A        10
 8 A        23
 9 A        17
10 A        20
# ℹ 62 more rows
…
