FIP 606 – aula-2
…
Após o carregamento do pacote de interesse, é possível trazer as informações de planilhas externas para dentro do R. Abaixo, um exemplo:

Se os dados que serão trabalhados estão dispostos em uma planilha do Google Sheet, então faz-se necessário instalar um pacote que consiga trabalhar esse tipo de planilha. Então como primeiro passo, instalo e carrego esse pacote.

## Carregamento de planilhas do Google Sheet

library(gsheet)

Após o carregamento do pacote, um nome é dado para o meu conjunto e uma função é atribuída. (A atribuição de funções é dada pelo “<-”). Nesse caso, o conjunto foi nomeado “d” e a função atribuída foi “gsheet2tbl”, que pertence ao pacote “gsheet”. Entre parenteses, o link da planilha disponível no Google Sheet.

d <- gsheet2tbl ("docs.google.com/spreadsheets/d/1I9mJsS5QnXF2TNNntTy-HrcdHmIF9wJ8ONYvEJTXSNo")

dplyr::arrange(d, mpg)

# A tibble: 32 × 11
     mpg   cyl  disp    hp  drat    wt  qsec    vs    am  gear  carb
   <dbl> <dbl> <dbl> <dbl> <dbl> <dbl> <dbl> <dbl> <dbl> <dbl> <dbl>
 1  10.4     8  472    205  2.93  5.25  18.0     0     0     3     4
 2  10.4     8  460    215  3     5.42  17.8     0     0     3     4
 3  13.3     8  350    245  3.73  3.84  15.4     0     0     3     4
 4  14.3     8  360    245  3.21  3.57  15.8     0     0     3     4
 5  14.7     8  440    230  3.23  5.34  17.4     0     0     3     4
 6  15       8  301    335  3.54  3.57  14.6     0     1     5     8
 7  15.2     8  276.   180  3.07  3.78  18       0     0     3     3
 8  15.2     8  304    150  3.15  3.44  17.3     0     0     3     2
 9  15.5     8  318    150  2.76  3.52  16.9     0     0     3     2
10  15.8     8  351    264  4.22  3.17  14.5     0     1     5     4
# ℹ 22 more rows
…
