FIP 606 - Importação de dados
…
 [1]  4  4  7  7  8  9 10 10 10 11 11 12 12 12 12 13 13 13 13 14 14 14 14 15 15
[26] 15 16 16 17 17 17 18 18 18 18 19 19 19 20 20 20 20 20 22 23 24 24 24 24 25

#Atribuindo "cars" a "cars2" um data frame é criado, e é a partir dele que o trabalho começa.

Ou então a importação de dados pode vir de algum pacote, como é o caso do conjunto “RustSoybean”, que pertence ao pacote “r4pde”.

# Não esquecer de carregar o pacote onde os dados de interesse estão.

library (r4pde)
df <- RustSoybean
df

# A tibble: 34 × 7
   epidemia latitude longitude local              planting   detection  severity
      <dbl>    <dbl>     <dbl> <chr>              <date>     <date>        <dbl>
 1       23    -23.0     -50.1 Cambara            2003-11-25 2004-02-02     24  
 2       24    -24.0     -52.4 Campo Mourao       2003-11-28 2004-02-02     21  
 3       31    -15.5     -55.2 Campo Verde        2004-11-20 2005-01-25     78  
 4        3    -13.3     -44.6 Correntina         2002-11-10 2003-01-03     85  
 5       15    -13.3     -44.6 Correntina         2003-11-28 2004-01-31     25  
 6       34    -25.4     -51.5 Guarapuava         2004-11-29 2005-03-14     32  
 7        7    -29.2     -53.7 Julio Castilhos    2002-12-15 2003-04-10     40  
 8       13    -12.1     -45.8 Luis Eduardo Maga… 2003-11-12 2004-02-15     39.2
 9       33    -12.1     -45.8 Luis Eduardo Maga… 2004-11-19 2005-01-25     55  
10        1    -23.3     -51.2 Londrina           2002-11-06 2003-02-03     45  
# ℹ 24 more rows
…
#Já no segundo caso, ao inserir o nome da planilha de interesse e na sua frente o número ou nome da aba específica que será trabalhada, apenas o dados daquela aba serão importados.
escala <- read_excel ("dados-diversos.xlsx", 2)
escala2 <- read_excel ("dados-diversos.xlsx", "escala")

De arquivos CSV

Ainda é possível importar dados que são trabalhados no software do Excel, mas que apresentam um formato diferente do padrão “xlsx”.

library (tidyverse)

magnesio2 <- read.csv ("dados-diversos.csv")
magnesio3 <- read_csv ("dados-diversos.csv")
magnesio3

# A tibble: 60 × 4
   Irrigation   rep   day severity
   <chr>      <dbl> <dbl>    <dbl>
 1 Furrow         1     0     0.01
 2 Furrow         2     0     0.01
 3 Furrow         3     0     0.01
 4 Furrow         1     7     0.04
 5 Furrow         2     7     0.04
 6 Furrow         3     7     0.04
 7 Furrow         1    14     0.1 
 8 Furrow         2    14     0.1 
 9 Furrow         3    14     0.11
10 Furrow         1    21     0.11
# ℹ 50 more rows
…
